{
  "entrypoint": "index.html",
  "shell": "src/my-app.html",
  "fragments": [
    "src/my-post.html",
    "src/my-alta.html",
    "src/my-login.html",
    "src/my-creapost.html",
    "src/my-gestion.html",
    "src/my-detalle.html",
    "src/my-modpost.html",
    "src/my-view404.html"
  ],
  "sources": [
    "src/**/*",
    "images/**/*",
    "bower.json"
  ],
  "extraDependencies": [
    "manifest.json",
    "bower_components/webcomponentsjs/*.js"
  ],
  "lint": {
    "rules": ["polymer-2"]
  },
  "builds": [
    {
      "preset": "es5-bundled"
    },
    {
      "preset": "es6-bundled"
    },
    {
      "preset": "es6-unbundled"
    }
  ]
}
